<?xml version="1.0" encoding="UTF-8"?>
<svg width="18px" height="17px" viewBox="0 0 18 17" version="1.1" xmlns="http://www.w3.org/2000/svg" xmlns:xlink="http://www.w3.org/1999/xlink">
    <!-- Generator: Sketch 57.1 (83088) - https://sketch.com -->
    <title>notification_bell-icon</title>
    <desc>Created with Sketch.</desc>
    <g id="Share-Numbers-+-block-element" stroke="none" stroke-width="1" fill="none" fill-rule="evenodd">
        <g id="01-cookies" transform="translate(-966.000000, -163.000000)">
            <g id="bubble" transform="translate(934.000000, 74.000000)">
                <g id="Group-10" transform="translate(16.394130, 71.278826)">
                    <g id="notification_bell-icon" transform="translate(15.966457, 17.721174)">
                        <circle id="Oval" fill="#0797E1" cx="8.5" cy="8.5" r="8.5"></circle>
                        <path d="M9.22246687,11.8352606 C9.22263024,12.4248121 8.78004803,12.8971002 8.2340944,12.8971002 C7.68814076,12.8971002 7.24555856,12.4248121 7.24555856,11.8422143 L7.24555856,11.8422143 L7.24572192,11.8352606 L9.22246687,11.8352606 L9.22246687,11.8352606 Z M8.23407625,4 C8.47953575,4 8.67850988,4.21234855 8.67852803,4.47426382 L8.67852803,4.47426382 L8.67852803,5.01006476 C9.71745177,5.23049042 10.5005698,6.20861476 10.5005698,7.38204244 L10.5005698,7.38204244 L10.5005698,9.12201055 L11.3902539,10.516658 C11.4839507,10.6635568 11.4938794,10.8537079 11.4159923,11.0108144 C11.3381234,11.1678822 11.1852535,11.266144 11.0187157,11.266144 L11.0187157,11.266144 L5.44943681,11.266144 C5.28289899,11.266144 5.13002906,11.1679016 5.05216015,11.0108144 C4.97429124,10.8537272 4.98420183,10.6635762 5.07791679,10.5166774 L5.07791679,10.5166774 L5.96760086,9.12202992 L5.96760086,9.12202992 L5.96760086,7.38206181 C5.96760086,6.2086535 6.75071888,5.23052916 7.78964262,5.01008413 L7.78964262,5.01008413 L7.78964262,4.47426382 C7.78964262,4.21234855 7.98861674,4 8.23407625,4 Z" id="bell" fill="#FFFFFF" fill-rule="nonzero"></path>
                    </g>
                </g>
            </g>
        </g>
    </g>
</svg>